{
  "name": "AddBuildingLevels",
  "queries": {
    "all": "",
    "pending": "(\n  wr[\"building\"~\"^house$|^residential$|^apartments$|^detached$|^terrace$|^dormitory$|^semi$|^semidetached_house$|^bungalow$|^school$|^civic$|^college$|^university$|^public$|^hospital$|^kindergarten$|^transportation$|^train_station$|^hotel$|^retail$|^commercial$|^office$|^manufacture$|^parking$|^farm$|^cabin$\"]\n  [!\"building:levels\"]\n  [!\"height\"][!\"roof:height\"]\n  [!\"building:min_level\"]\n  [!\"man_made\"]\n  [\"location\"!\u003d\"underground\"]\n  [\"ruins\"!\u003d\"yes\"]\n  (area.municipality);\n  wr[\"building\"~\"^house$|^residential$|^apartments$|^detached$|^terrace$|^dormitory$|^semi$|^semidetached_house$|^bungalow$|^school$|^civic$|^college$|^university$|^public$|^hospital$|^kindergarten$|^transportation$|^train_station$|^hotel$|^retail$|^commercial$|^office$|^manufacture$|^parking$|^farm$|^cabin$\"]\n  [!\"roof:levels\"][!\"roof:height\"][\"roof:shape\"][\"roof:shape\"!\u003d\"flat\"]\n  [!\"height\"][!\"roof:height\"]\n  [!\"building:min_level\"]\n  [!\"man_made\"]\n  [\"location\"!\u003d\"underground\"]\n  [\"ruins\"!\u003d\"yes\"]\n  (area.municipality);\n);",
    "solved": ""
  },
  "tag": "",
  "resurvey": "",
  "sourceFile": "building_levels/AddBuildingLevels.kt",
  "sourceFileHash": "0QyxxptwS81deJRS1JkpRCCbtn8\u003d",
  "filterHash": "yR/fvMQfqbpImZTmKErGzdrNIJM\u003d",
  "originalElementFilter": "ways, relations with\n           building ~ ${BUILDINGS_WITH_LEVELS.joinToString(\"|\")}\n           and (\n             !building:levels\n             or !roof:levels and !roof:height and roof:shape and roof:shape !\u003d flat\n           )\n           and !(height and roof:height)\n           and !building:min_level\n           and !man_made\n           and location !\u003d underground\n           and ruins !\u003d yes",
  "wikiLink": "Key:building:levels",
  "achievements": [
    "BUILDING"
  ],
  "enabledInCountries": "",
  "title": "override fun getTitle(tags: Map\u003cString, String\u003e) \u003d when {",
  "icon": "R.drawable.ic_quest_building_levels",
  "defaultDisabledMessage": "",
  "defaultPriority": 156.0,
  "obsolete": false
}