{
  "name": "AddCarWashType",
  "queries": {
    "all": "",
    "pending": "(\n  nw[\"amenity\"\u003d\"car_wash\"][!\"automated\"][!\"self_service\"](area.municipality);\n);",
    "solved": ""
  },
  "tag":"",
  "resurvey": "",
  "sourceFile": "car_wash_type/AddCarWashType.kt",
  "sourceFileHash": "qZOZm1hS1WscgJSS/ExPj9FMRbA\u003d",
  "filterHash": "OQVrTrWbpXTkcth+Z2laM4UO+dk\u003d",
  "originalElementFilter": "nodes, ways with amenity \u003d car_wash and !automated and !self_service",
  "wikiLink": "Tag:amenity\u003dcar_wash",
  "achievements": [
    "CAR"
  ],
  "enabledInCountries": "",
  "title": "R.string.quest_carWashType_title",
  "icon": "R.drawable.ic_quest_car_wash",
  "defaultPriority": 10
}