{
  "name": "AddFerryAccessPedestrian",
  "queries": {
    "all": "(\n  wr[\"route\"=\"ferry\"](area.municipality);\n);",
    "pending": "(\n  wr[\"route\"=\"ferry\"][!\"foot\"](area.municipality);\n);",
    "solved": "(\n  wr[\"route\"=\"ferry\"][\"foot\"](area.municipality);\n);"
  },
  "tag":"",
  "resurvey": "",
  "sourceFile": "ferry/AddFerryAccessPedestrian.kt",
  "sourceFileHash": "HYpoQYK2lTGvu3dkFvDuKEgn24w\u003d",
  "filterHash": "TW+t6A7rFrp8DiOUxcotfbi+3uM\u003d",
  "originalElementFilter": "ways, relations with route \u003d ferry and !foot",
  "wikiLink": "Tag:route\u003dferry",
  "achievements": [
    "RARE",
    "PEDESTRIAN"
  ],
  "enabledInCountries": "",
  "title": "R.string.quest_ferry_pedestrian_title",
  "icon": "R.drawable.ic_quest_ferry_pedestrian",
  "defaultPriority":106
}