{
  "name": "AddVegetarian",
  "queries": {
    "all": "",
    "pending": "(\n  nw[\"amenity\"~\"restaurant|cafe|fast_food|food_court\"][\"food\"!\u003d\"no\"]\n  [\"diet:vegan\"!\u003d\"only\"][!\"diet:vegetarian\"]\n  (area.municipality);\nnw[\"amenity\"~\"pub|nightclub|biergarten|bar\"][\"food\"\u003d\"yes\"]\n  [\"diet:vegan\"!\u003d\"only\"][!\"diet:vegetarian\"]\n  (area.municipality);\n\nnw[\"amenity\"~\"restaurant|cafe|fast_food|food_court\"][\"food\"!\u003d\"no\"]\n  [\"diet:vegan\"!\u003d\"only\"][\"diet:vegetarian\"!\u003d\"only\"]\n  (area.municipality)-\u003e.allRestaurant;\nnw[\"amenity\"~\"restaurant|cafe|fast_food|food_court\"][\"food\"!\u003d\"no\"]\n  [\"diet:vegan\"!\u003d\"only\"][\"diet:vegetarian\"!\u003d\"only\"]\n  (area.municipality)(newer:\"{{PT-35063H}}\")-\u003e.newerRestaurant;\n\nnw[\"amenity\"~\"pub|nightclub|biergarten|bar\"][\"food\"\u003d\"yes\"]\n  [\"diet:vegan\"!\u003d\"only\"][\"diet:vegetarian\"!\u003d\"only\"]\n  (area.municipality)-\u003e.allPub;\nnw[\"amenity\"~\"pub|nightclub|biergarten|bar\"][\"food\"\u003d\"yes\"]\n  [\"diet:vegan\"!\u003d\"only\"][\"diet:vegetarian\"!\u003d\"only\"]\n  (area.municipality)-\u003e.newerPub;\n  \n(.allRestaurant; - .newerRestaurant;);\n(.allPub; - .newerPub;);\n  \n);",
    "solved": ""
  },
  "tag": "diet:vegetarian",
  "resurvey": "4 years",
  "sourceFile": "diet_type/AddVegetarian.kt",
  "sourceFileHash": "NkLk52pv6aUQqmQHzSYGOa+TWRM\u003d",
  "filterHash": "kZPWq6PQ1f/B1G2uej1WyAuDwdM\u003d",
  "originalElementFilter": "nodes, ways with\n        (\n          amenity ~ restaurant|cafe|fast_food|food_court and food !\u003d no\n          or amenity ~ pub|nightclub|biergarten|bar and food \u003d yes\n        )\n        and diet:vegan !\u003d only and (\n          !diet:vegetarian\n          or diet:vegetarian !\u003d only and diet:vegetarian older today -4 years\n        )",
  "wikiLink": "Key:diet",
  "achievements": [
    "VEG",
    "CITIZEN"
  ],
  "enabledInCountries": "",
  "title": "R.string.quest_dietType_vegetarian_title2",
  "icon": "R.drawable.ic_quest_restaurant_vegetarian",
  "defaultDisabledMessage": "",
  "defaultPriority": 130
}